<svg xmlns="http://www.w3.org/2000/svg" width="50" height="38" fill="none" viewBox="0 0 50 38">
    <path fill="#E2AD00" d="M23.95 3.855a2.12 2.12 0 0 1-.648 1.542c-.389.386-.777.643-1.166.771-.519.386-1.037.514-1.685.771-.648.129-1.296.257-2.074.257h-.388v-3.34H6.065v10.28H17.99v-3.599h5.832v3.47c0 .642-.13 1.156-.39 1.67-.258.514-.647.9-1.166 1.157-.518.257-1.036.514-1.684.642-.648.129-1.296.257-2.074.257H5.417c-.648 0-1.425-.128-2.073-.257-.648-.128-1.167-.385-1.685-.77a2.532 2.532 0 0 1-1.167-1.157c-.259-.386-.388-.9-.388-1.542V3.727c0-.514.13-1.028.388-1.414.26-.514.648-.9 1.167-1.156C2.177.9 2.696.643 3.344.386 3.992.257 4.64.129 5.417.129h13.09c1.685 0 2.98.257 4.018.899.907.643 1.425 1.542 1.425 2.827zM50 14.007c0 1.285-.518 2.184-1.555 2.827-1.037.642-2.463.9-4.147.9H31.726c-.648 0-1.425-.13-2.073-.258-.648-.128-1.296-.385-1.815-.642-.518-.257-.907-.643-1.296-1.157-.259-.385-.518-1.028-.518-1.542h18.014v-3.34h-12.57c-.649 0-1.427-.13-2.075-.258-.648-.128-1.166-.385-1.684-.642a2.532 2.532 0 0 1-1.167-1.157 3.531 3.531 0 0 1-.389-1.67V4.112c0-.642.13-1.285.39-1.799.259-.514.647-.9 1.166-1.285.518-.385 1.037-.514 1.684-.771C30.041.129 30.69 0 31.468 0h12.83c1.685 0 3.111.257 4.018.9 1.037.514 1.555 1.542 1.555 2.827H32.115v3.212h12.183c.648 0 1.425.129 2.073.129.648.128 1.296.385 1.815.642.518.257.907.643 1.296 1.157.388.514.518 1.028.518 1.542v3.598zM23.717 34.273c0 .643-.13 1.157-.389 1.671-.26.386-.648.771-1.166 1.156-.519.258-1.037.514-1.685.643-.648.128-1.296.257-2.074.257H5.313c-.647 0-1.425-.129-2.073-.257-.648-.129-1.166-.386-1.685-.771A2.532 2.532 0 0 1 .39 35.815c-.26-.385-.389-.9-.389-1.542v-10.28c0-.514.13-1.028.389-1.413.259-.386.648-.771 1.166-1.157a21.181 21.181 0 0 1 1.685-.77c.648-.13 1.296-.258 2.074-.258h13.09c1.684 0 2.98.257 3.887.9.907.642 1.426 1.542 1.426 2.827H5.962v10.28h11.923V31.06h-4.277c-1.426 0-2.592-.257-3.629-.9-1.037-.642-1.555-1.285-1.685-2.184v-.643h15.423v6.94zm25.92.129c0 .642-.13 1.157-.389 1.542-.259.386-.648.771-1.166 1.028-.519.257-1.037.514-1.685.642-.648.129-1.425.258-2.073.258h-13.22c-.777 0-1.425-.129-2.073-.258-.648-.128-1.167-.385-1.685-.77a2.532 2.532 0 0 1-1.167-1.157c-.259-.386-.388-.9-.388-1.542V23.993c0-.514.13-1.028.388-1.413.26-.514.648-.9 1.167-1.157.518-.257 1.037-.514 1.685-.77.648-.13 1.296-.258 2.073-.258h13.09c1.555 0 2.851.257 3.888.9 1.037.642 1.555 1.542 1.555 2.698v10.409zm-5.832-10.28H31.882v10.28h11.923v-10.28z"/>
</svg>
