<svg xmlns="http://www.w3.org/2000/svg" width="46" height="47" fill="none" viewBox="0 0 46 47">
    <g clip-path="url(#a)">
        <path fill="#FA9C1E" d="M22.75 0C17.633.034 12.573 1.898 8.597 5.177l4.344 5.153c3.666-2.956 8.606-4.161 13.188-3.23 2.518.495 4.914 1.624 6.935 3.23l4.344-5.153C33.295 1.787 28.045-.081 22.751 0z"/>
        <path fill="#fff" d="M7.178 6.443C2.601 10.837-.083 17.223.002 23.666c.003 6.688 2.988 13.257 7.947 17.602 4.583 4.095 10.816 6.182 16.902 5.654 6.594-.502 12.853-4.1 16.722-9.568 3.766-5.196 5.242-12.047 3.992-18.401A23.677 23.677 0 0 0 38.6 6.23l-4.344 5.153c3.5 3.371 5.412 8.347 5.051 13.256a16.852 16.852 0 0 1-2.017 6.969l-8.853-8.738-4.466-9.837-.007 14.897 8.947 8.846c-3.987 3.165-9.458 4.215-14.305 2.812a16.087 16.087 0 0 1-5.467-2.773l9.008-8.885c-.016-4.843.055-10.071 0-14.913l-4.474 9.853-8.929 8.81c-2.724-4.858-2.789-11.14-.167-16.053a16.933 16.933 0 0 1 3.163-4.244L7.396 6.231l-.218.212z"/>
    </g>
    <defs>
        <clipPath id="a">
            <path fill="#fff" d="M0 0h46v47H0z" transform="matrix(-1 0 0 1 46 0)"/>
        </clipPath>
    </defs>
</svg>
