<svg width="22" height="10" viewBox="0 0 22 10" fill="none" xmlns="http://www.w3.org/2000/svg">
<path fill-rule="evenodd" clip-rule="evenodd" d="M3.13585 3.91346L5.79949 1.51614C6.15647 1.19481 6.18539 0.644996 5.86406 0.288018C5.54295 -0.0691786 4.99292 -0.0980935 4.63594 0.223448L0.287844 4.13674C0.249363 4.17565 0.228275 4.20065 0.207187 4.22565C0.191316 4.24435 0.174359 4.2624 0.160227 4.2824C0.141096 4.30957 0.125443 4.33914 0.109572 4.36849C0.098267 4.38936 0.0854401 4.40914 0.0756569 4.43088C0.0619604 4.46176 0.0528294 4.49437 0.0426114 4.52698C0.035437 4.54981 0.0265234 4.57198 0.0213057 4.59524C0.0145661 4.6259 0.0126095 4.65786 0.00913101 4.6896C0.00652215 4.71329 0.000652215 4.73634 0 4.76025C0 4.81113 0.00565253 4.83743 0.00826139 4.86461C0.0108702 4.892 0.0113051 4.91961 0.0165228 4.94635C0.0232623 4.98135 0.0347848 5.01418 0.0454376 5.04745C0.0521772 5.06897 0.0569601 5.09093 0.0654389 5.1118C0.0802224 5.1481 0.0997888 5.18137 0.119138 5.21506C0.128486 5.23137 0.135443 5.24854 0.145879 5.26442C0.17762 5.31203 0.213709 5.3566 0.253929 5.39703C0.254146 5.39725 4.60268 9.746 4.60268 9.746C4.77269 9.91579 4.99509 10.0008 5.21772 10.0008C5.44034 10.0008 5.66274 9.91579 5.83276 9.746C6.17234 9.40641 6.17234 8.85573 5.83276 8.51636L2.9691 5.6527H20.8709C21.3511 5.6527 21.7405 5.26333 21.7405 4.78308C21.7405 4.30283 21.3511 3.91346 20.8709 3.91346H3.13585Z" fill="#969696"/>
</svg>
