<svg xmlns="http://www.w3.org/2000/svg" width="43" height="44" fill="none" viewBox="0 0 43 44">
    <path fill="#C11D00" d="M43 42.643l-.161-17.757c-1.853.195-1.142-.435-1.142-.435.355.305.55.087.55.087-.14-1.26.247-1.978.247-1.978-.485-.358.161-1.89.161-1.89-.84.054-.43-1.652-.43-1.652-.711-.142-.603-.63-.603-.63.463-.468-.194-.196-.194-.196-.679-1.207.57-1.587.57-1.587l-.484-1.26 1.25-.033c.57-6.857-.249-10.78-.249-10.78.657-.359.162-2.576.162-2.576-1.335-.272-1.195-.848-1.195-.848l-1.174-.032-.41-.25c-.032.934-2.153-.087-2.153-.087-.926 1.043-1.174-.663-1.174-.663.194.033-.657-.217-.323.326.323.554-.086.576-.086.576C28.516.152 27.87.761 27.87.761c.786.521-.033 1.184 0 1.369-1.443-.033-1.799.272-1.799.272C26.05 1.185 24.5.359 23.551.435c-.947.087-1.518-.413-1.518-.413C21.128.88 19.061 0 19.061 0c-.27.685-.657.38-.657.38l-.84-.087-.14.609-.258-.576c-.248 1.065-.485.935-.485.935l-.678.021c0 .044-.011.142-.087.337-.194.522-.732 0-.732 0s-1.852.109-2.778.055C11.48 1.619 10.963.88 10.963.88l-.356.49-.872-.11L9.681.99l-.463.272-1.96-.055-.194.196-.301-.326-.485-.033-.215.25L5.76.88 5.6.848l-.162.434-.269-.217-1.174-.054-.247-.468C2.132 2.206.786.815.786.815L.571 2.554.409 2.52l-.086-1.01.194-.055.054-.163-.485-.054L0 3.456c.41.63.485-.033.485-.033l.247.141c-.926 9.857.41 14.084.41 14.084-.948 2.445.549 3.13.549 3.13l-.054 1.652-.732-.413-.033.413.377.217-.108.196c-.376-.326-.516-.25-.516-.25-.216 3.901.161 5.63.161 5.63l.84.14-.194 4.662-.657.033c-.269.435-.301 2.14-.301 2.14.603 4.891-.216 6.369-.216 6.369l1.25.196-.033.608.27.141c.053-.434.484-.554.484-.554.302.109.032.576.032.576l.27.055.107-.609H2.8l-.032.359.269.032c1.195-.554 1.281.054 1.281.054l.108-.684c.162.435 1.443.358 1.443.358 1.12-.14 1.25.36 1.25.36l-.055-.686h.248c.108.522.463.38.463.38.054-.716.355-.575.355-.575.216.25.162.826.162.826l.302.141c.107-.522.656-.435.656-.435l.463-.326v.326h.517l.14-.358c.14.087.216.63.216.63h.248l.193-.141.14.195c.033-.271.377-.467.377-.467l.323.49.248-.088-.032-.358c.247-.142.818.467.818.467l.14-.163-.27-.326.378-.413c.032.326.549.902.549.902-.194-.848.301-.99.301-.99.302.957.927.99.927.99.053-.38.194-.413.194-.413.764.826 2.283.109 2.283.109l1.033 1.706c.248-.305.894-.25.894-.25l-.161-.49c1.852-.608 2.444.468 2.444.468l.355-.522.216-.032.032.413c.625.434 2.014-.087 2.014-.087l-.323-.25c-.14-.326 4.027-.272 4.027-.272.033.196-.161.326-.161.326l-1.055.087c1.033.685 1.873-.163 1.873-.163l.108-.467-.355.087c.161-.413.603-.272.603-.272l-.194.663c.301.109.517-.087.517-.087l.032-.467h.194l-.108.38c1.443-.435 2.477-.25 2.477-.25.14-.663.786-.521.786-.521.948.738 2.122.25 2.122.25 2.423 1.206 3.726-.033 3.726-.033.549.739.517-.054.517-.054l.71-.033.108-.217-1.637-.142c1.314-1.325 4.803.696 4.803.696zM30.96 8.292c1.314-.424 1.982.087 1.982.087l1.895 1.401-.01.174-.291-.087s-.248.12-.14.555c.107.423.215-.055.215-.055l-.032-.217.247-.01-.872 5.64-.355.032-.226-.304h-.41s.108-.826-.323-.837c-.43-.011-.204.271-.204.271l.344.163-.097.196-7.14-5.531c.012-.011 4.104-1.055 5.417-1.478zm-20.127 28.33l-.366-.228s-.086.38-.452.261c-.118.044-.205-.109-.205-.109.076.055.151.087.205.109.075-.022.172-.13.27-.391 0 0-.098-.218-.227 0l-.097.206-.032-.402-.248.163-.194-.032-.043.358-3.586-2.684s-.517-.196-.107-1.445c.409-1.25 2.606-6.02 2.606-6.02l8.486 8.27-6.01 1.944zm24.252-.565c-5.438.359-6.45-2.054-6.45-2.054l-4.351-4.694.194-.25-.463-.435.032.359c-.463-.935-1.002-1.24-1.002-1.24l.14.436c-.624-.522-.43-1.13-.43-1.13l-.819-1.066c-.657-.358-.194.196-.194.196l.625.717-.162.25s-1.087-.934-1.766-2.227c-.678-1.294-.161.14-.161.14l-4.232-4.618.323.25s.409.554.161-.087c-.248-.63-1.034-.521-1.034-.521L5.061 8.835c3.048-2 4.512-.413 4.512-.413l3.21 2.282-.162.196.71.717.162-.087-.323-.413.679.38-.162.272.14.141.248-.195.248.25.43.032c-.053.718 1.034.663 1.034.663L33.06 24.516l-.215.25.463.38-.27-.032-.785-.326-.033.359 2.09.195 3.586 2.445c-.227 4.956-2.811 8.27-2.811 8.27z"/>
</svg>
