<svg xmlns="http://www.w3.org/2000/svg" width="15" height="15" fill="none" viewBox="0 0 15 15">
    <path fill="#fff" fill-rule="evenodd" d="M7.5 0c2.443 0 2.732.01 3.697.053.892.041 1.376.19 1.699.315.397.147.756.38 1.051.685.304.295.538.654.685 1.052.125.322.274.806.315 1.698.044.965.053 1.254.053 3.697s-.01 2.732-.053 3.697c-.041.892-.19 1.376-.315 1.699a3.029 3.029 0 0 1-1.736 1.736c-.323.125-.807.274-1.7.315-.964.044-1.253.053-3.696.053-2.443 0-2.732-.01-3.697-.053-.892-.041-1.376-.19-1.698-.315a2.834 2.834 0 0 1-1.052-.685 2.835 2.835 0 0 1-.685-1.051c-.125-.323-.274-.807-.315-1.7C.01 10.233 0 9.944 0 7.5c0-2.443.01-2.732.053-3.697.041-.892.19-1.376.315-1.698.147-.398.38-.757.685-1.052A2.834 2.834 0 0 1 2.105.368C2.427.243 2.91.094 3.803.053 4.768.01 5.057 0 7.5 0zm0 2.802a4.698 4.698 0 1 0 0 9.395 4.698 4.698 0 0 0 0-9.395zm-1.694 7.233a3.05 3.05 0 1 0 3.388-5.07 3.05 3.05 0 0 0-3.388 5.07zm7.675-7.419a1.098 1.098 0 1 1-2.195 0 1.098 1.098 0 0 1 2.195 0z" clip-rule="evenodd"/>
</svg>
