<svg xmlns="http://www.w3.org/2000/svg" width="12" height="16" fill="none" viewBox="0 0 12 16">
    <path fill="#fff" fill-rule="evenodd" d="M10.5 0A1.5 1.5 0 0 0 9 1.5v4.864L1.633.336A1 1 0 0 0 0 1.11v13.78a1 1 0 0 0 1.633.774L9 9.636V14.5a1.5 1.5 0 0 0 3 0v-13A1.5 1.5 0 0 0 10.5 0z" clip-rule="evenodd"/>
</svg>
