<svg xmlns="http://www.w3.org/2000/svg" width="20" height="20" fill="none" viewBox="0 0 20 20">
    <path fill="#969696" d="M16.119 6.224H9.46V3.92A3.925 3.925 0 0 0 5.541 0H3.92A3.925 3.925 0 0 0 0 3.92v3.296h1.61V3.92a2.313 2.313 0 0 1 2.31-2.31h1.62a2.314 2.314 0 0 1 2.312 2.31v2.526a3.375 3.375 0 0 0-2.18 3.15v7.032A3.376 3.376 0 0 0 9.046 20h7.074a3.376 3.376 0 0 0 3.372-3.372V9.597a3.377 3.377 0 0 0-3.372-3.373zm1.764 10.404c0 .972-.791 1.763-1.764 1.763H9.045a1.765 1.765 0 0 1-1.763-1.763V9.597c0-.973.79-1.764 1.763-1.764h7.074c.972 0 1.764.791 1.764 1.764v7.03z"/>
    <path fill="#969696" d="M12.582 11.915c-.642 0-1.164.522-1.164 1.164 0 .514.34.96.82 1.108v.794h.69v-.794c.478-.148.82-.593.82-1.108 0-.642-.523-1.164-1.165-1.164z"/>
</svg>
